{
    "name": "Google Extreme De-Bloat",
    "desc": "A debloater script to remove all Google apps",
    "version": "1.0",
    "authors": [
      "cavebob"
    ],
    "source": "https://gitlab.com/cavebob/Warden-Debloat",
    "packages": [
    "com.google.android.contacts",
    "com.google.android.apps.photos",
    "com.google.android.apps.turbo",
    "com.google.android.dialer",
    "com.google.android.documentsui",
    "com.google.android.email",
    "com.google.android.ext.shared",
    "com.google.android.tag",
    "com.google.android.gms.location.history",
    "com.google.android.gms.policy_sidecar_aps",
    "com.google.android.location",
    "com.google.android.webview",
    "com.google.android.gm",
    "com.google.audio.hearing.visualization.accessibility.scribe",
    "com.google.android.apps.work.oobconfig",
	"com.android.hotwordenrollment.xgoogle",
	"com.android.partnerbrowsercustomizations.chromeHomepage",
	"com.android.chrome", 
	"com.chrome.beta",
	"com.chrome.canary",
	"com.chrome.dev",
	"com.google.android.apps.access.wifi.consumer",
	"com.google.android.apps.adm",
	"com.google.android.apps.ads.publisher",
	"com.google.android.apps.adwords",
	"com.google.android.apps.authenticator2",
	"com.google.android.apps.blogger",
	"com.google.android.apps.books",
	"com.google.android.apps.cloudprint",
	"com.google.android.apps.cultural",
	"com.google.android.apps.currents",
	"com.google.android.apps.docs",
	"com.google.android.apps.docs.editors.docs",
	"com.google.android.apps.docs.editors.sheets",
	"com.google.android.apps.docs.editors.slides",
	"com.google.android.apps.dynamite",
	"com.google.android.apps.enterprise.cpanel",
	"com.google.android.apps.enterprise.dmagent",
	"com.google.android.apps.fireball",
	"com.google.android.apps.fitness",
	"com.google.android.apps.freighter",
	"com.google.android.apps.giant",
	"com.google.android.apps.googleassistant",
	"com.google.android.apps.handwriting.ime",
	"com.google.android.apps.hangoutsdialer",
	"com.google.android.apps.inbox",
	"com.google.android.apps.kids.familylink",
	"com.google.android.apps.kids.familylinkhelper",
	"com.google.android.apps.m4b",
	"com.google.android.apps.magazines",
	"com.google.android.apps.mapslite",
	"com.google.android.apps.meetings",
	"com.google.android.apps.messaging",
	"com.google.android.apps.navlite",
	"com.google.android.apps.nbu.files",
	"com.google.android.apps.paidtasks",
	"com.google.android.apps.pdfviewer",
	"com.google.android.apps.photos",
	"com.google.android.apps.photos.scanner",
	"com.google.android.apps.plus",
	"com.google.android.apps.podcasts",
	"com.google.android.apps.restore",
	"com.google.android.apps.recorder",
	"com.google.android.apps.setupwizard.searchselector",
	"com.google.android.apps.santatracker",
	"com.google.android.apps.subscriptions.ed",
	"com.google.android.apps.tachyon",
	"com.google.android.apps.tasks",
	"com.google.android.apps.translate",
	"com.google.android.apps.travel.onthego",
	"com.google.android.apps.uploader",
	"com.google.android.apps.vega",
	"com.google.android.apps.walletnfcrel",
	"com.google.android.apps.wallpaper",
	"com.google.android.apps.wellbeing",
	"com.google.android.apps.youtube.creator",
	"com.google.android.apps.youtube.gaming",
	"com.google.android.apps.youtube.kids",
	"com.google.android.apps.youtube.music",
	"com.google.android.apps.youtube.vr",
	"com.google.android.backup",
	"com.google.android.backuptransport",
	"com.google.android.calculator",
	"com.google.android.calendar",
	"com.google.android.feedback",
	"com.google.android.googlequicksearchbox",
	"com.google.android.instantapps.supervisor",
	"com.google.android.keep",
	"com.google.android.markup",
	"com.google.android.marvin.talkback",
	"com.google.android.music",
	"com.google.android.play.games",
	"com.google.android.printservice.recommendation",
	"com.google.android.projection.gearhead",
	"com.google.android.soundpicker",
	"com.google.android.street",
	"com.google.android.syncadapters.bookmarks",
	"com.google.android.talk",
	"com.google.android.tts",
	"com.google.android.tv.remote",
	"com.google.android.videoeditor",
	"com.google.android.videos",
	"com.google.android.voicesearch",
	"com.google.android.vr.home",
	"com.google.android.vr.inputmethod",
	"com.google.android.wearable.app",
	"com.google.ar.core",
	"com.google.ar.lens",
	"com.google.chromeremotedesktop",
	"com.google.earth",
	"com.google.marvin.talkback",
	"com.google.samples.apps.cardboarddemo",
	"com.google.tango.measure",
	"com.google.vr.cyclops",
	"com.google.vr.expeditions",
	"com.google.vr.vrcore",
	"com.google.zxing.client.android"
    ]
  }
  
